Max Rohde - Statistical simulation of robust estimators with tidyverse tools
…
Now we are finally ready to analyze the results of our simulation. First, let’s compute the bias and variance of our estimators for each sample size.

Code
summary_df <-
df %>%
  group_by(size, Estimator) %>%
  summarize(Bias = (mean(Estimate) - 3),
            Variance = var(Estimate)) %>%
  pivot_longer(Bias:Variance)

# A tibble: 24 × 4
# Groups:   size [6]
    size Estimator name          value
   <dbl> <chr>     <chr>         <dbl>
 1     5 mean      Bias      0.0000212
 2     5 mean      Variance  0.199    
 3     5 median    Bias      0.00141  
 4     5 median    Variance  0.286    
 5    10 mean      Bias     -0.000959 
 6    10 mean      Variance  0.100    
 7    10 median    Bias     -0.000314 
 8    10 median    Variance  0.138    
 9    20 mean      Bias      0.000634 
10    20 mean      Variance  0.0502   
# … with 14 more rows
…
