Max Rohde - Tidy evaluation and metaprogramming
…
Before we proceed with the rest of this blog post, let’s load some libraries. We also load the Palmer Penguins dataset, which we’ll use for illustration.

Load example data

library(tidyverse)
library(rlang)
library(lobstr)
library(palmerpenguins)

# Load the palmer penguins data and drop all rows with missing data
df <- 
  penguins |>
  drop_na()

# A tibble: 333 × 8
   species island    bill_length_mm bill_depth_mm flipper_…¹ body_…² sex    year
   <fct>   <fct>              <dbl>         <dbl>      <int>   <int> <fct> <int>
 1 Adelie  Torgersen           39.1          18.7        181    3750 male   2007
 2 Adelie  Torgersen           39.5          17.4        186    3800 fema…  2007
 3 Adelie  Torgersen           40.3          18          195    3250 fema…  2007
 4 Adelie  Torgersen           36.7          19.3        193    3450 fema…  2007
 5 Adelie  Torgersen           39.3          20.6        190    3650 male   2007
 6 Adelie  Torgersen           38.9          17.8        181    3625 fema…  2007
 7 Adelie  Torgersen           39.2          19.6        195    4675 male   2007
 8 Adelie  Torgersen           41.1          17.6        182    3200 fema…  2007
 9 Adelie  Torgersen           38.6          21.2        191    3800 male   2007
10 Adelie  Torgersen           34.6          21.1        198    4400 male   2007
# … with 323 more rows, and abbreviated variable names ¹​flipper_length_mm,
#   ²​body_mass_g
…
