Max Rohde – Statistical simulation of robust estimators with tidyverse tools
…
We will use a tibble to store all of our simulation results. First, let’s decide what sample sizes to simulate, and how many trials to run. The more trials we run, the more accurate our simulation results will be – the only cost being increased time to run the simulations.

Code

size <- c(5,10,20,50,100,200)
trial <- 1:1e5

Now we use crossing() to generate a tibble that contains every combination of the vectors size and trial. So for every sample size, we are repeating it 100,000 times.

Code

df <- crossing(trial, size)

# A tibble: 600,000 × 2
   trial  size
   <int> <dbl>
 1     1     5
 2     1    10
 3     1    20
 4     1    50
 5     1   100
 6     1   200
 7     2     5
 8     2    10
 9     2    20
10     2    50
# … with 599,990 more rows

Now in each row, we want a unique sample of data with the sample size given by that row. We will use purrr::map() to do this.

Code

df$data <- map(df$size, ~rnorm(n=.x, mean = 3, sd=1))

The first argument to map is the vector to iterate over, and the second argument is the function to apply. We use .x as a dummy variable to refer to the value in the current iteration. In words, we are mapping each sample size to a random sample of size \(n\) from a normal distribution.

The new column, data, is a vector of lists, where each list contains a unique sample of data. Let’s see what this looks like.

# A tibble: 600,000 × 3
   trial  size data       
   <int> <dbl> <list>     
 1     1     5 <dbl [5]>  
 2     1    10 <dbl [10]> 
 3     1    20 <dbl [20]> 
 4     1    50 <dbl [50]> 
 5     1   100 <dbl [100]>
 6     1   200 <dbl [200]>
 7     2     5 <dbl [5]>  
 8     2    10 <dbl [10]> 
 9     2    20 <dbl [20]> 
10     2    50 <dbl [50]> 
# … with 599,990 more rows

Now that we have our data, we can compute the mean and median for each sample.

Code

df$mean <- map_dbl(df$data, ~mean(.x))
df$median <- map_dbl(df$data, ~median(.x))

# A tibble: 600,000 × 5
   trial  size data         mean median
   <int> <dbl> <list>      <dbl>  <dbl>
 1     1     5 <dbl [5]>    2.80   2.31
 2     1    10 <dbl [10]>   3.96   3.55
 3     1    20 <dbl [20]>   3.14   3.15
 4     1    50 <dbl [50]>   3.07   3.09
 5     1   100 <dbl [100]>  3.16   3.32
 6     1   200 <dbl [200]>  2.96   2.95
 7     2     5 <dbl [5]>    2.52   2.78
 8     2    10 <dbl [10]>   2.83   2.80
 9     2    20 <dbl [20]>   3.08   3.14
10     2    50 <dbl [50]>   2.93   2.86
# … with 599,990 more rows

The mean and median of each sample are now in separate columns. However, to get the data into tidy format, also known as long format, we want them in separate rows. Having the data in tidy format allows us to use ggplot2 and other tidyverse functions more effectively. We use pivot_longer to do this.

Code

df <- pivot_longer(df, cols=mean:median, names_to="Estimator", values_to="Estimate")

# A tibble: 1,200,000 × 5
   trial  size data        Estimator Estimate
   <int> <dbl> <list>      <chr>        <dbl>
 1     1     5 <dbl [5]>   mean          2.80
 2     1     5 <dbl [5]>   median        2.31
 3     1    10 <dbl [10]>  mean          3.96
 4     1    10 <dbl [10]>  median        3.55
 5     1    20 <dbl [20]>  mean          3.14
 6     1    20 <dbl [20]>  median        3.15
 7     1    50 <dbl [50]>  mean          3.07
 8     1    50 <dbl [50]>  median        3.09
 9     1   100 <dbl [100]> mean          3.16
10     1   100 <dbl [100]> median        3.32
# … with 1,199,990 more rows

Now we are finally ready to analyze the results of our simulation. First, let’s compute the bias and variance of our estimators for each sample size.

Code

df %>%
  group_by(size, Estimator) %>%
  summarize(Bias = (mean(Estimate) - 3),
            Variance = var(Estimate)) %>%
  pivot_longer(Bias:Variance) -> summary_df

# A tibble: 24 × 4
# Groups:   size [6]
    size Estimator name          value
   <dbl> <chr>     <chr>         <dbl>
 1     5 mean      Bias      0.0000212
 2     5 mean      Variance  0.199    
 3     5 median    Bias      0.00141  
 4     5 median    Variance  0.286    
 5    10 mean      Bias     -0.000959 
 6    10 mean      Variance  0.100    
 7    10 median    Bias     -0.000314 
 8    10 median    Variance  0.138    
 9    20 mean      Bias      0.000634 
10    20 mean      Variance  0.0502   
# … with 14 more rows
…
